{
	"letters": {
		" ": 0.138,
		"о": 0.086,
		"н": 0.068,
		"а": 0.064,
		"и": 0.055,
		"в": 0.046,
		"т": 0.045,
		"і": 0.044,
		"р": 0.043,
		"е": 0.042,
		"с": 0.037,
		"к": 0.033,
		"м": 0.029,
		"у": 0.027,
		"д": 0.027,
		"л": 0.027,
		"п": 0.025,
		"з": 0.02,
		"я": 0.019,
		"ь": 0.016,
		"б": 0.013,
		"г": 0.013,
		"ч": 0.011,
		"х": 0.011,
		"ї": 0.010,
		"ц": 0.010,
		"ш": 0.005,
		"й": 0.009,
		"ж": 0.007,
		"ю": 0.008,
		"є": 0.005,
		"щ": 0.004,
		"ф": 0.003,
		"ґ": 0.0
	},
	"bigrams": {
	}
}
